^C:\USERS\NILSK\DOCUMENTS\GIT\SPIKE12\ZORKISH\ZORKISH\ABOUT.CPP
/c /IC:\USERS\NILSK\DOCUMENTS\GIT\SPIKE12\ZORKISH\PACKAGES\BOOST.1.61.0.0\BUILD\NATIVE\..\..\LIB\NATIVE\INCLUDE\ /IC:\USERS\NILSK\DOCUMENTS\GIT\SPIKE12\ZORKISH\PACKAGES\RAPIDJSON.1.0.2\BUILD\NATIVE\../..//BUILD/NATIVE/INCLUDE/ /ZI /nologo /W3 /WX- /sdl /Od /Oy- /D WIN32 /D _DEBUG /D _CONSOLE /D _UNICODE /D UNICODE /Gm /EHsc /RTC1 /MDd /GS /fp:precise /Zc:wchar_t /Zc:forScope /Zc:inline /Fo"DEBUG\\" /Fd"DEBUG\VC140.PDB" /Gd /TP /analyze- C:\USERS\NILSK\DOCUMENTS\GIT\SPIKE12\ZORKISH\ZORKISH\ABOUT.CPP
^C:\USERS\NILSK\DOCUMENTS\GIT\SPIKE12\ZORKISH\ZORKISH\COMMANDMANAGER.CPP
/c /IC:\USERS\NILSK\DOCUMENTS\GIT\SPIKE12\ZORKISH\PACKAGES\BOOST.1.61.0.0\BUILD\NATIVE\..\..\LIB\NATIVE\INCLUDE\ /IC:\USERS\NILSK\DOCUMENTS\GIT\SPIKE12\ZORKISH\PACKAGES\RAPIDJSON.1.0.2\BUILD\NATIVE\../..//BUILD/NATIVE/INCLUDE/ /ZI /nologo /W3 /WX- /sdl /Od /Oy- /D WIN32 /D _DEBUG /D _CONSOLE /D _UNICODE /D UNICODE /Gm /EHsc /RTC1 /MDd /GS /fp:precise /Zc:wchar_t /Zc:forScope /Zc:inline /Fo"DEBUG\\" /Fd"DEBUG\VC140.PDB" /Gd /TP /analyze- C:\USERS\NILSK\DOCUMENTS\GIT\SPIKE12\ZORKISH\ZORKISH\COMMANDMANAGER.CPP
^C:\USERS\NILSK\DOCUMENTS\GIT\SPIKE12\ZORKISH\ZORKISH\GAMELOGIC.CPP
/c /IC:\USERS\NILSK\DOCUMENTS\GIT\SPIKE12\ZORKISH\PACKAGES\BOOST.1.61.0.0\BUILD\NATIVE\..\..\LIB\NATIVE\INCLUDE\ /IC:\USERS\NILSK\DOCUMENTS\GIT\SPIKE12\ZORKISH\PACKAGES\RAPIDJSON.1.0.2\BUILD\NATIVE\../..//BUILD/NATIVE/INCLUDE/ /ZI /nologo /W3 /WX- /sdl /Od /Oy- /D WIN32 /D _DEBUG /D _CONSOLE /D _UNICODE /D UNICODE /Gm /EHsc /RTC1 /MDd /GS /fp:precise /Zc:wchar_t /Zc:forScope /Zc:inline /Fo"DEBUG\\" /Fd"DEBUG\VC140.PDB" /Gd /TP /analyze- C:\USERS\NILSK\DOCUMENTS\GIT\SPIKE12\ZORKISH\ZORKISH\GAMELOGIC.CPP
^C:\USERS\NILSK\DOCUMENTS\GIT\SPIKE12\ZORKISH\ZORKISH\GAMEOBJECT.CPP
/c /IC:\USERS\NILSK\DOCUMENTS\GIT\SPIKE12\ZORKISH\PACKAGES\BOOST.1.61.0.0\BUILD\NATIVE\..\..\LIB\NATIVE\INCLUDE\ /IC:\USERS\NILSK\DOCUMENTS\GIT\SPIKE12\ZORKISH\PACKAGES\RAPIDJSON.1.0.2\BUILD\NATIVE\../..//BUILD/NATIVE/INCLUDE/ /ZI /nologo /W3 /WX- /sdl /Od /Oy- /D WIN32 /D _DEBUG /D _CONSOLE /D _UNICODE /D UNICODE /Gm /EHsc /RTC1 /MDd /GS /fp:precise /Zc:wchar_t /Zc:forScope /Zc:inline /Fo"DEBUG\\" /Fd"DEBUG\VC140.PDB" /Gd /TP /analyze- C:\USERS\NILSK\DOCUMENTS\GIT\SPIKE12\ZORKISH\ZORKISH\GAMEOBJECT.CPP
^C:\USERS\NILSK\DOCUMENTS\GIT\SPIKE12\ZORKISH\ZORKISH\GAMEOBJECTHELPER.CPP
/c /IC:\USERS\NILSK\DOCUMENTS\GIT\SPIKE12\ZORKISH\PACKAGES\BOOST.1.61.0.0\BUILD\NATIVE\..\..\LIB\NATIVE\INCLUDE\ /IC:\USERS\NILSK\DOCUMENTS\GIT\SPIKE12\ZORKISH\PACKAGES\RAPIDJSON.1.0.2\BUILD\NATIVE\../..//BUILD/NATIVE/INCLUDE/ /ZI /nologo /W3 /WX- /sdl /Od /Oy- /D WIN32 /D _DEBUG /D _CONSOLE /D _UNICODE /D UNICODE /Gm /EHsc /RTC1 /MDd /GS /fp:precise /Zc:wchar_t /Zc:forScope /Zc:inline /Fo"DEBUG\\" /Fd"DEBUG\VC140.PDB" /Gd /TP /analyze- C:\USERS\NILSK\DOCUMENTS\GIT\SPIKE12\ZORKISH\ZORKISH\GAMEOBJECTHELPER.CPP
^C:\USERS\NILSK\DOCUMENTS\GIT\SPIKE12\ZORKISH\ZORKISH\HEALTHCOMPONENT.CPP
/c /IC:\USERS\NILSK\DOCUMENTS\GIT\SPIKE12\ZORKISH\PACKAGES\BOOST.1.61.0.0\BUILD\NATIVE\..\..\LIB\NATIVE\INCLUDE\ /IC:\USERS\NILSK\DOCUMENTS\GIT\SPIKE12\ZORKISH\PACKAGES\RAPIDJSON.1.0.2\BUILD\NATIVE\../..//BUILD/NATIVE/INCLUDE/ /ZI /nologo /W3 /WX- /sdl /Od /Oy- /D WIN32 /D _DEBUG /D _CONSOLE /D _UNICODE /D UNICODE /Gm /EHsc /RTC1 /MDd /GS /fp:precise /Zc:wchar_t /Zc:forScope /Zc:inline /Fo"DEBUG\\" /Fd"DEBUG\VC140.PDB" /Gd /TP /analyze- C:\USERS\NILSK\DOCUMENTS\GIT\SPIKE12\ZORKISH\ZORKISH\HEALTHCOMPONENT.CPP
^C:\USERS\NILSK\DOCUMENTS\GIT\SPIKE12\ZORKISH\ZORKISH\HELP.CPP
/c /IC:\USERS\NILSK\DOCUMENTS\GIT\SPIKE12\ZORKISH\PACKAGES\BOOST.1.61.0.0\BUILD\NATIVE\..\..\LIB\NATIVE\INCLUDE\ /IC:\USERS\NILSK\DOCUMENTS\GIT\SPIKE12\ZORKISH\PACKAGES\RAPIDJSON.1.0.2\BUILD\NATIVE\../..//BUILD/NATIVE/INCLUDE/ /ZI /nologo /W3 /WX- /sdl /Od /Oy- /D WIN32 /D _DEBUG /D _CONSOLE /D _UNICODE /D UNICODE /Gm /EHsc /RTC1 /MDd /GS /fp:precise /Zc:wchar_t /Zc:forScope /Zc:inline /Fo"DEBUG\\" /Fd"DEBUG\VC140.PDB" /Gd /TP /analyze- C:\USERS\NILSK\DOCUMENTS\GIT\SPIKE12\ZORKISH\ZORKISH\HELP.CPP
^C:\USERS\NILSK\DOCUMENTS\GIT\SPIKE12\ZORKISH\ZORKISH\HIGHSCORE.CPP
/c /IC:\USERS\NILSK\DOCUMENTS\GIT\SPIKE12\ZORKISH\PACKAGES\BOOST.1.61.0.0\BUILD\NATIVE\..\..\LIB\NATIVE\INCLUDE\ /IC:\USERS\NILSK\DOCUMENTS\GIT\SPIKE12\ZORKISH\PACKAGES\RAPIDJSON.1.0.2\BUILD\NATIVE\../..//BUILD/NATIVE/INCLUDE/ /ZI /nologo /W3 /WX- /sdl /Od /Oy- /D WIN32 /D _DEBUG /D _CONSOLE /D _UNICODE /D UNICODE /Gm /EHsc /RTC1 /MDd /GS /fp:precise /Zc:wchar_t /Zc:forScope /Zc:inline /Fo"DEBUG\\" /Fd"DEBUG\VC140.PDB" /Gd /TP /analyze- C:\USERS\NILSK\DOCUMENTS\GIT\SPIKE12\ZORKISH\ZORKISH\HIGHSCORE.CPP
^C:\USERS\NILSK\DOCUMENTS\GIT\SPIKE12\ZORKISH\ZORKISH\INVENTORY.CPP
/c /IC:\USERS\NILSK\DOCUMENTS\GIT\SPIKE12\ZORKISH\PACKAGES\BOOST.1.61.0.0\BUILD\NATIVE\..\..\LIB\NATIVE\INCLUDE\ /IC:\USERS\NILSK\DOCUMENTS\GIT\SPIKE12\ZORKISH\PACKAGES\RAPIDJSON.1.0.2\BUILD\NATIVE\../..//BUILD/NATIVE/INCLUDE/ /ZI /nologo /W3 /WX- /sdl /Od /Oy- /D WIN32 /D _DEBUG /D _CONSOLE /D _UNICODE /D UNICODE /Gm /EHsc /RTC1 /MDd /GS /fp:precise /Zc:wchar_t /Zc:forScope /Zc:inline /Fo"DEBUG\\" /Fd"DEBUG\VC140.PDB" /Gd /TP /analyze- C:\USERS\NILSK\DOCUMENTS\GIT\SPIKE12\ZORKISH\ZORKISH\INVENTORY.CPP
^C:\USERS\NILSK\DOCUMENTS\GIT\SPIKE12\ZORKISH\ZORKISH\LEVELREADER.CPP
/c /IC:\USERS\NILSK\DOCUMENTS\GIT\SPIKE12\ZORKISH\PACKAGES\BOOST.1.61.0.0\BUILD\NATIVE\..\..\LIB\NATIVE\INCLUDE\ /IC:\USERS\NILSK\DOCUMENTS\GIT\SPIKE12\ZORKISH\PACKAGES\RAPIDJSON.1.0.2\BUILD\NATIVE\../..//BUILD/NATIVE/INCLUDE/ /ZI /nologo /W3 /WX- /sdl /Od /Oy- /D WIN32 /D _DEBUG /D _CONSOLE /D _UNICODE /D UNICODE /Gm /EHsc /RTC1 /MDd /GS /fp:precise /Zc:wchar_t /Zc:forScope /Zc:inline /Fo"DEBUG\\" /Fd"DEBUG\VC140.PDB" /Gd /TP /analyze- C:\USERS\NILSK\DOCUMENTS\GIT\SPIKE12\ZORKISH\ZORKISH\LEVELREADER.CPP
^C:\USERS\NILSK\DOCUMENTS\GIT\SPIKE12\ZORKISH\ZORKISH\MAIN.CPP
/c /IC:\USERS\NILSK\DOCUMENTS\GIT\SPIKE12\ZORKISH\PACKAGES\BOOST.1.61.0.0\BUILD\NATIVE\..\..\LIB\NATIVE\INCLUDE\ /IC:\USERS\NILSK\DOCUMENTS\GIT\SPIKE12\ZORKISH\PACKAGES\RAPIDJSON.1.0.2\BUILD\NATIVE\../..//BUILD/NATIVE/INCLUDE/ /ZI /nologo /W3 /WX- /sdl /Od /Oy- /D WIN32 /D _DEBUG /D _CONSOLE /D _UNICODE /D UNICODE /Gm /EHsc /RTC1 /MDd /GS /fp:precise /Zc:wchar_t /Zc:forScope /Zc:inline /Fo"DEBUG\\" /Fd"DEBUG\VC140.PDB" /Gd /TP /analyze- C:\USERS\NILSK\DOCUMENTS\GIT\SPIKE12\ZORKISH\ZORKISH\MAIN.CPP
^C:\USERS\NILSK\DOCUMENTS\GIT\SPIKE12\ZORKISH\ZORKISH\MAINSTATE.CPP
/c /IC:\USERS\NILSK\DOCUMENTS\GIT\SPIKE12\ZORKISH\PACKAGES\BOOST.1.61.0.0\BUILD\NATIVE\..\..\LIB\NATIVE\INCLUDE\ /IC:\USERS\NILSK\DOCUMENTS\GIT\SPIKE12\ZORKISH\PACKAGES\RAPIDJSON.1.0.2\BUILD\NATIVE\../..//BUILD/NATIVE/INCLUDE/ /ZI /nologo /W3 /WX- /sdl /Od /Oy- /D WIN32 /D _DEBUG /D _CONSOLE /D _UNICODE /D UNICODE /Gm /EHsc /RTC1 /MDd /GS /fp:precise /Zc:wchar_t /Zc:forScope /Zc:inline /Fo"DEBUG\\" /Fd"DEBUG\VC140.PDB" /Gd /TP /analyze- C:\USERS\NILSK\DOCUMENTS\GIT\SPIKE12\ZORKISH\ZORKISH\MAINSTATE.CPP
^C:\USERS\NILSK\DOCUMENTS\GIT\SPIKE12\ZORKISH\ZORKISH\LOCATION.CPP
/c /IC:\USERS\NILSK\DOCUMENTS\GIT\SPIKE12\ZORKISH\PACKAGES\BOOST.1.61.0.0\BUILD\NATIVE\..\..\LIB\NATIVE\INCLUDE\ /IC:\USERS\NILSK\DOCUMENTS\GIT\SPIKE12\ZORKISH\PACKAGES\RAPIDJSON.1.0.2\BUILD\NATIVE\../..//BUILD/NATIVE/INCLUDE/ /ZI /nologo /W3 /WX- /sdl /Od /Oy- /D WIN32 /D _DEBUG /D _CONSOLE /D _UNICODE /D UNICODE /Gm /EHsc /RTC1 /MDd /GS /fp:precise /Zc:wchar_t /Zc:forScope /Zc:inline /Fo"DEBUG\\" /Fd"DEBUG\VC140.PDB" /Gd /TP /analyze- C:\USERS\NILSK\DOCUMENTS\GIT\SPIKE12\ZORKISH\ZORKISH\LOCATION.CPP
^C:\USERS\NILSK\DOCUMENTS\GIT\SPIKE12\ZORKISH\ZORKISH\MESSAGINGSYSTEM.CPP
/c /IC:\USERS\NILSK\DOCUMENTS\GIT\SPIKE12\ZORKISH\PACKAGES\BOOST.1.61.0.0\BUILD\NATIVE\..\..\LIB\NATIVE\INCLUDE\ /IC:\USERS\NILSK\DOCUMENTS\GIT\SPIKE12\ZORKISH\PACKAGES\RAPIDJSON.1.0.2\BUILD\NATIVE\../..//BUILD/NATIVE/INCLUDE/ /ZI /nologo /W3 /WX- /sdl /Od /Oy- /D WIN32 /D _DEBUG /D _CONSOLE /D _UNICODE /D UNICODE /Gm /EHsc /RTC1 /MDd /GS /fp:precise /Zc:wchar_t /Zc:forScope /Zc:inline /Fo"DEBUG\\" /Fd"DEBUG\VC140.PDB" /Gd /TP /analyze- C:\USERS\NILSK\DOCUMENTS\GIT\SPIKE12\ZORKISH\ZORKISH\MESSAGINGSYSTEM.CPP
^C:\USERS\NILSK\DOCUMENTS\GIT\SPIKE12\ZORKISH\ZORKISH\PLAYER.CPP
/c /IC:\USERS\NILSK\DOCUMENTS\GIT\SPIKE12\ZORKISH\PACKAGES\BOOST.1.61.0.0\BUILD\NATIVE\..\..\LIB\NATIVE\INCLUDE\ /IC:\USERS\NILSK\DOCUMENTS\GIT\SPIKE12\ZORKISH\PACKAGES\RAPIDJSON.1.0.2\BUILD\NATIVE\../..//BUILD/NATIVE/INCLUDE/ /ZI /nologo /W3 /WX- /sdl /Od /Oy- /D WIN32 /D _DEBUG /D _CONSOLE /D _UNICODE /D UNICODE /Gm /EHsc /RTC1 /MDd /GS /fp:precise /Zc:wchar_t /Zc:forScope /Zc:inline /Fo"DEBUG\\" /Fd"DEBUG\VC140.PDB" /Gd /TP /analyze- C:\USERS\NILSK\DOCUMENTS\GIT\SPIKE12\ZORKISH\ZORKISH\PLAYER.CPP
^C:\USERS\NILSK\DOCUMENTS\GIT\SPIKE12\ZORKISH\ZORKISH\SCORE.CPP
/c /IC:\USERS\NILSK\DOCUMENTS\GIT\SPIKE12\ZORKISH\PACKAGES\BOOST.1.61.0.0\BUILD\NATIVE\..\..\LIB\NATIVE\INCLUDE\ /IC:\USERS\NILSK\DOCUMENTS\GIT\SPIKE12\ZORKISH\PACKAGES\RAPIDJSON.1.0.2\BUILD\NATIVE\../..//BUILD/NATIVE/INCLUDE/ /ZI /nologo /W3 /WX- /sdl /Od /Oy- /D WIN32 /D _DEBUG /D _CONSOLE /D _UNICODE /D UNICODE /Gm /EHsc /RTC1 /MDd /GS /fp:precise /Zc:wchar_t /Zc:forScope /Zc:inline /Fo"DEBUG\\" /Fd"DEBUG\VC140.PDB" /Gd /TP /analyze- C:\USERS\NILSK\DOCUMENTS\GIT\SPIKE12\ZORKISH\ZORKISH\SCORE.CPP
^C:\USERS\NILSK\DOCUMENTS\GIT\SPIKE12\ZORKISH\ZORKISH\SELECTADVENTURE.CPP
/c /IC:\USERS\NILSK\DOCUMENTS\GIT\SPIKE12\ZORKISH\PACKAGES\BOOST.1.61.0.0\BUILD\NATIVE\..\..\LIB\NATIVE\INCLUDE\ /IC:\USERS\NILSK\DOCUMENTS\GIT\SPIKE12\ZORKISH\PACKAGES\RAPIDJSON.1.0.2\BUILD\NATIVE\../..//BUILD/NATIVE/INCLUDE/ /ZI /nologo /W3 /WX- /sdl /Od /Oy- /D WIN32 /D _DEBUG /D _CONSOLE /D _UNICODE /D UNICODE /Gm /EHsc /RTC1 /MDd /GS /fp:precise /Zc:wchar_t /Zc:forScope /Zc:inline /Fo"DEBUG\\" /Fd"DEBUG\VC140.PDB" /Gd /TP /analyze- C:\USERS\NILSK\DOCUMENTS\GIT\SPIKE12\ZORKISH\ZORKISH\SELECTADVENTURE.CPP
^C:\USERS\NILSK\DOCUMENTS\GIT\SPIKE12\ZORKISH\ZORKISH\STATEBASE.CPP
/c /IC:\USERS\NILSK\DOCUMENTS\GIT\SPIKE12\ZORKISH\PACKAGES\BOOST.1.61.0.0\BUILD\NATIVE\..\..\LIB\NATIVE\INCLUDE\ /IC:\USERS\NILSK\DOCUMENTS\GIT\SPIKE12\ZORKISH\PACKAGES\RAPIDJSON.1.0.2\BUILD\NATIVE\../..//BUILD/NATIVE/INCLUDE/ /ZI /nologo /W3 /WX- /sdl /Od /Oy- /D WIN32 /D _DEBUG /D _CONSOLE /D _UNICODE /D UNICODE /Gm /EHsc /RTC1 /MDd /GS /fp:precise /Zc:wchar_t /Zc:forScope /Zc:inline /Fo"DEBUG\\" /Fd"DEBUG\VC140.PDB" /Gd /TP /analyze- C:\USERS\NILSK\DOCUMENTS\GIT\SPIKE12\ZORKISH\ZORKISH\STATEBASE.CPP
^C:\USERS\NILSK\DOCUMENTS\GIT\SPIKE12\ZORKISH\ZORKISH\STATEMANAGER.CPP
/c /IC:\USERS\NILSK\DOCUMENTS\GIT\SPIKE12\ZORKISH\PACKAGES\BOOST.1.61.0.0\BUILD\NATIVE\..\..\LIB\NATIVE\INCLUDE\ /IC:\USERS\NILSK\DOCUMENTS\GIT\SPIKE12\ZORKISH\PACKAGES\RAPIDJSON.1.0.2\BUILD\NATIVE\../..//BUILD/NATIVE/INCLUDE/ /ZI /nologo /W3 /WX- /sdl /Od /Oy- /D WIN32 /D _DEBUG /D _CONSOLE /D _UNICODE /D UNICODE /Gm /EHsc /RTC1 /MDd /GS /fp:precise /Zc:wchar_t /Zc:forScope /Zc:inline /Fo"DEBUG\\" /Fd"DEBUG\VC140.PDB" /Gd /TP /analyze- C:\USERS\NILSK\DOCUMENTS\GIT\SPIKE12\ZORKISH\ZORKISH\STATEMANAGER.CPP
^C:\USERS\NILSK\DOCUMENTS\GIT\SPIKE12\ZORKISH\ZORKISH\OBJECTREMOVEDMESSAGE.CPP
/c /IC:\USERS\NILSK\DOCUMENTS\GIT\SPIKE12\ZORKISH\PACKAGES\BOOST.1.61.0.0\BUILD\NATIVE\..\..\LIB\NATIVE\INCLUDE\ /IC:\USERS\NILSK\DOCUMENTS\GIT\SPIKE12\ZORKISH\PACKAGES\RAPIDJSON.1.0.2\BUILD\NATIVE\../..//BUILD/NATIVE/INCLUDE/ /ZI /nologo /W3 /WX- /sdl /Od /Oy- /D WIN32 /D _DEBUG /D _CONSOLE /D _UNICODE /D UNICODE /Gm /EHsc /RTC1 /MDd /GS /fp:precise /Zc:wchar_t /Zc:forScope /Zc:inline /Fo"DEBUG\\" /Fd"DEBUG\VC140.PDB" /Gd /TP /analyze- C:\USERS\NILSK\DOCUMENTS\GIT\SPIKE12\ZORKISH\ZORKISH\OBJECTREMOVEDMESSAGE.CPP
